[
  {
    "id": 5725,
    "name": "A. Dippet",
    "isfemale": false
  },
  {
    "id": 3580,
    "name": "A. Sinistra",
    "isfemale": true
  },
  {
    "id": 31373,
    "name": "Abraxas M.",
    "isfemale": false
  },
  {
    "id": 8862,
    "name": "Adrian P.",
    "isfemale": false
  },
  {
    "id": 107460,
    "name": "Albert R.",
    "isfemale": false
  },
  {
    "id": 351,
    "name": "Albus D.",
    "isfemale": false
  },
  {
    "id": 4566,
    "name": "Albus S. P.",
    "isfemale": false
  },
  {
    "id": 121190,
    "name": "Alexia B.",
    "isfemale": true
  },
  {
    "id": 3539,
    "name": "Alice L.",
    "isfemale": true
  },
  {
    "id": 849,
    "name": "Alicia S.",
    "isfemale": true
  },
  {
    "id": 3540,
    "name": "Alphard B.",
    "isfemale": false
  },
  {
    "id": 82278,
    "name": "Ambrosius F.",
    "isfemale": false
  },
  {
    "id": 5709,
    "name": "Amelia B.",
    "isfemale": true
  },
  {
    "id": 52526,
    "name": "Amy B.",
    "isfemale": true
  },
  {
    "id": 3629,
    "name": "Andromeda T.",
    "isfemale": true
  },
  {
    "id": 561,
    "name": "Angelina J.",
    "isfemale": true
  },
  {
    "id": 3541,
    "name": "Anthony G.",
    "isfemale": false
  },
  {
    "id": 17099,
    "name": "Antonin D.",
    "isfemale": false
  },
  {
    "id": 126062,
    "name": "Aragog",
    "isfemale": false
  },
  {
    "id": 353,
    "name": "Argus F.",
    "isfemale": false
  },
  {
    "id": 5459,
    "name": "Ariana D.",
    "isfemale": true
  },
  {
    "id": 852,
    "name": "Arthur W.",
    "isfemale": false
  },
  {
    "id": 17889,
    "name": "Augustus R.",
    "isfemale": false
  },
  {
    "id": 3543,
    "name": "Barty C. Jr.",
    "isfemale": false
  },
  {
    "id": 546,
    "name": "Bellatrix L.",
    "isfemale": true
  },
  {
    "id": 756,
    "name": "Bill W.",
    "isfemale": false
  },
  {
    "id": 777,
    "name": "Blaise Z.",
    "isfemale": false
  },
  {
    "id": 14907,
    "name": "Bloody Baron",
    "isfemale": false
  },
  {
    "id": 57158,
    "name": "Bob H.",
    "isfemale": false
  },
  {
    "id": 3582,
    "name": "C. Binns",
    "isfemale": false
  },
  {
    "id": 5714,
    "name": "Charity B.",
    "isfemale": true
  },
  {
    "id": 851,
    "name": "Charlie W.",
    "isfemale": false
  },
  {
    "id": 58221,
    "name": "Charlus P.",
    "isfemale": false
  },
  {
    "id": 3546,
    "name": "Cormac M.",
    "isfemale": false
  },
  {
    "id": 854,
    "name": "Dean T.",
    "isfemale": false
  },
  {
    "id": 3549,
    "name": "Dennis C.",
    "isfemale": false
  },
  {
    "id": 712,
    "name": "Dolores U.",
    "isfemale": true
  },
  {
    "id": 25275,
    "name": "Dominique W.",
    "isfemale": false
  },
  {
    "id": 15315,
    "name": "Dorcas M.",
    "isfemale": true
  },
  {
    "id": 85853,
    "name": "Dorea Black/Potter",
    "isfemale": true
  },
  {
    "id": 6,
    "name": "Draco M.",
    "isfemale": false
  },
  {
    "id": 2508,
    "name": "Dudley D.",
    "isfemale": false
  },
  {
    "id": 57156,
    "name": "Elladora B.",
    "isfemale": true
  },
  {
    "id": 3553,
    "name": "F. Flitwick",
    "isfemale": false
  },
  {
    "id": 5464,
    "name": "Fabian P.",
    "isfemale": false
  },
  {
    "id": 30501,
    "name": "Fang",
    "isfemale": false
  },
  {
    "id": 15286,
    "name": "Fawkes",
    "isfemale": false
  },
  {
    "id": 2510,
    "name": "Fenrir G.",
    "isfemale": false
  },
  {
    "id": 349,
    "name": "Fleur D.",
    "isfemale": true
  },
  {
    "id": 3556,
    "name": "Frank L.",
    "isfemale": false
  },
  {
    "id": 4452,
    "name": "Fred W.",
    "isfemale": false
  },
  {
    "id": 67261,
    "name": "Fred W. II",
    "isfemale": false
  },
  {
    "id": 5721,
    "name": "G. Ollivander",
    "isfemale": false
  },
  {
    "id": 2662,
    "name": "Gabrielle D.",
    "isfemale": true
  },
  {
    "id": 5717,
    "name": "Gellert G.",
    "isfemale": false
  },
  {
    "id": 10,
    "name": "George W.",
    "isfemale": false
  },
  {
    "id": 544,
    "name": "Gilderoy L.",
    "isfemale": false
  },
  {
    "id": 11,
    "name": "Ginny W.",
    "isfemale": true
  },
  {
    "id": 2451,
    "name": "Godric G.",
    "isfemale": false
  },
  {
    "id": 2785,
    "name": "Hannah A.",
    "isfemale": true
  },
  {
    "id": 1,
    "name": "Harry P.",
    "isfemale": false
  },
  {
    "id": 20734,
    "name": "Hedwig",
    "isfemale": true
  },
  {
    "id": 2450,
    "name": "Helga H.",
    "isfemale": false
  },
  {
    "id": 132893,
    "name": "Henry P.",
    "isfemale": false
  },
  {
    "id": 3,
    "name": "Hermione G.",
    "isfemale": true
  },
  {
    "id": 3559,
    "name": "Horace S.",
    "isfemale": false
  },
  {
    "id": 3560,
    "name": "I. Pince",
    "isfemale": true
  },
  {
    "id": 99876,
    "name": "Ignatius P.",
    "isfemale": false
  },
  {
    "id": 65076,
    "name": "Ignotus P.",
    "isfemale": false
  },
  {
    "id": 14865,
    "name": "James S. P.",
    "isfemale": false
  },
  {
    "id": 853,
    "name": "Lee J.",
    "isfemale": false
  },
  {
    "id": 8,
    "name": "Lily Evans P.",
    "isfemale": true
  },
  {
    "id": 7742,
    "name": "Lily Luna P.",
    "isfemale": true
  },
  {
    "id": 9130,
    "name": "Lorcan S.",
    "isfemale": false
  },
  {
    "id": 25276,
    "name": "Louis W.",
    "isfemale": false
  },
  {
    "id": 347,
    "name": "Lucius M.",
    "isfemale": false
  },
  {
    "id": 9129,
    "name": "Lucy W.",
    "isfemale": true
  },
  {
    "id": 9131,
    "name": "Lysander S.",
    "isfemale": false
  },
  {
    "id": 100160,
    "name": "Malcom P.",
    "isfemale": false
  },
  {
    "id": 57121,
    "name": "Marauders",
    "isfemale": false
  },
  {
    "id": 101532,
    "name": "Merlin",
    "isfemale": false
  },
  {
    "id": 3570,
    "name": "Michael C.",
    "isfemale": false
  },
  {
    "id": 673,
    "name": "Molly W.",
    "isfemale": true
  },
  {
    "id": 50125,
    "name": "Molly W. II",
    "isfemale": true
  },
  {
    "id": 31696,
    "name": "Morag M.",
    "isfemale": true
  },
  {
    "id": 16183,
    "name": "Mrs. Norris",
    "isfemale": true
  },
  {
    "id": 43177,
    "name": "Mrs. Zabini",
    "isfemale": true
  },
  {
    "id": 3574,
    "name": "Myrtle",
    "isfemale": false
  },
  {
    "id": 549,
    "name": "N. Tonks",
    "isfemale": true
  },
  {
    "id": 12918,
    "name": "Nagini",
    "isfemale": true
  },
  {
    "id": 550,
    "name": "Narcissa M.",
    "isfemale": true
  },
  {
    "id": 95749,
    "name": "Newt S.",
    "isfemale": false
  },
  {
    "id": 9912,
    "name": "Nicolas F.",
    "isfemale": false
  },
  {
    "id": 3576,
    "name": "Olympe M.",
    "isfemale": true
  },
  {
    "id": 2809,
    "name": "Padma P.",
    "isfemale": true
  },
  {
    "id": 2320,
    "name": "Parvati P.",
    "isfemale": true
  },
  {
    "id": 16902,
    "name": "Peeves",
    "isfemale": false
  },
  {
    "id": 3577,
    "name": "Penelope C.",
    "isfemale": true
  },
  {
    "id": 5723,
    "name": "Percival D.",
    "isfemale": false
  },
  {
    "id": 12,
    "name": "Percy W.",
    "isfemale": false
  },
  {
    "id": 2027,
    "name": "Peter P.",
    "isfemale": false
  },
  {
    "id": 2115,
    "name": "Petunia D.",
    "isfemale": true
  },
  {
    "id": 108248,
    "name": "Phineas B.",
    "isfemale": false
  },
  {
    "id": 3578,
    "name": "Poppy P.",
    "isfemale": true
  },
  {
    "id": 2704,
    "name": "R. Hooch",
    "isfemale": true
  },
  {
    "id": 5727,
    "name": "Rabastan L.",
    "isfemale": false
  },
  {
    "id": 5,
    "name": "Remus L.",
    "isfemale": false
  },
  {
    "id": 15173,
    "name": "Rolf S.",
    "isfemale": false
  },
  {
    "id": 3588,
    "name": "Romilda V.",
    "isfemale": true
  },
  {
    "id": 2,
    "name": "Ron W.",
    "isfemale": false
  },
  {
    "id": 5462,
    "name": "Rose W.",
    "isfemale": true
  },
  {
    "id": 5728,
    "name": "Rosmerta",
    "isfemale": true
  },
  {
    "id": 2452,
    "name": "Rowena R.",
    "isfemale": true
  },
  {
    "id": 14035,
    "name": "Roxanne W.",
    "isfemale": true
  },
  {
    "id": 352,
    "name": "Rubeus H.",
    "isfemale": false
  },
  {
    "id": 3589,
    "name": "Rufus S.",
    "isfemale": false
  },
  {
    "id": 39163,
    "name": "Sanguini",
    "isfemale": false
  },
  {
    "id": 4567,
    "name": "Scorpius M.",
    "isfemale": false
  },
  {
    "id": 749,
    "name": "Seamus F.",
    "isfemale": false
  },
  {
    "id": 3591,
    "name": "Sybill T.",
    "isfemale": true
  },
  {
    "id": 4565,
    "name": "Teddy L.",
    "isfemale": false
  },
  {
    "id": 3592,
    "name": "Terry B.",
    "isfemale": false
  },
  {
    "id": 1962,
    "name": "Tom R. Jr.",
    "isfemale": false
  },
  {
    "id": 3594,
    "name": "Tom R. Sr.",
    "isfemale": false
  },
  {
    "id": 2509,
    "name": "Vernon D.",
    "isfemale": false
  },
  {
    "id": 5524,
    "name": "Victoire W.",
    "isfemale": true
  },
  {
    "id": 1775,
    "name": "Viktor K.",
    "isfemale": false
  },
  {
    "id": 348,
    "name": "Voldemort",
    "isfemale": false
  },
  {
    "id": 5730,
    "name": "Walburga B.",
    "isfemale": true
  },
  {
    "id": 64449,
    "name": "Wayne H.",
    "isfemale": false
  },
  {
    "id": 5550,
    "name": "Xenophilius L.",
    "isfemale": false
  },
  {
    "id": 5707,
    "name": "Aberforth D.",
    "isfemale": false
  },
  {
    "id": 551,
    "name": "Alastor M.",
    "isfemale": false
  },
  {
    "id": 5708,
    "name": "Alecto C.",
    "isfemale": true
  },
  {
    "id": 5710,
    "name": "Amycus C.",
    "isfemale": false
  },
  {
    "id": 3542,
    "name": "Arabella F.",
    "isfemale": true
  },
  {
    "id": 5461,
    "name": "Astoria G.",
    "isfemale": true
  },
  {
    "id": 32052,
    "name": "Benjy F.",
    "isfemale": false
  },
  {
    "id": 30502,
    "name": "Buckbeak",
    "isfemale": false
  },
  {
    "id": 20496,
    "name": "C. Fudge",
    "isfemale": false
  },
  {
    "id": 1776,
    "name": "Cedric D.",
    "isfemale": false
  },
  {
    "id": 350,
    "name": "Cho C.",
    "isfemale": true
  },
  {
    "id": 3545,
    "name": "Colin C.",
    "isfemale": false
  },
  {
    "id": 30500,
    "name": "Crookshanks",
    "isfemale": false
  },
  {
    "id": 5549,
    "name": "Daphne G.",
    "isfemale": true
  },
  {
    "id": 4507,
    "name": "Dobby",
    "isfemale": false
  },
  {
    "id": 55067,
    "name": "Dr. Granger",
    "isfemale": false
  },
  {
    "id": 3550,
    "name": "Eileen P.",
    "isfemale": true
  },
  {
    "id": 3165,
    "name": "Ernie M.",
    "isfemale": false
  },
  {
    "id": 3525,
    "name": "Evan R.",
    "isfemale": false
  },
  {
    "id": 3555,
    "name": "Firenze",
    "isfemale": false
  },
  {
    "id": 36093,
    "name": "G. Jones",
    "isfemale": true
  },
  {
    "id": 42001,
    "name": "Giant Squid",
    "isfemale": false
  },
  {
    "id": 856,
    "name": "Gregory G.",
    "isfemale": false
  },
  {
    "id": 5718,
    "name": "Helena R.",
    "isfemale": true
  },
  {
    "id": 5523,
    "name": "Hugo W.",
    "isfemale": false
  },
  {
    "id": 2808,
    "name": "I. Karkaroff",
    "isfemale": false
  },
  {
    "id": 57157,
    "name": "Isla B.",
    "isfemale": true
  },
  {
    "id": 7,
    "name": "James P.",
    "isfemale": false
  },
  {
    "id": 2786,
    "name": "Justin F.",
    "isfemale": false
  },
  {
    "id": 848,
    "name": "Katie B.",
    "isfemale": true
  },
  {
    "id": 3562,
    "name": "Kingsley S.",
    "isfemale": false
  },
  {
    "id": 12917,
    "name": "Kreacher",
    "isfemale": false
  },
  {
    "id": 3563,
    "name": "Lavender B.",
    "isfemale": true
  },
  {
    "id": 34899,
    "name": "Lisa T.",
    "isfemale": true
  },
  {
    "id": 547,
    "name": "Luna L.",
    "isfemale": true
  },
  {
    "id": 30649,
    "name": "Magorian",
    "isfemale": false
  },
  {
    "id": 850,
    "name": "Marcus F.",
    "isfemale": false
  },
  {
    "id": 2228,
    "name": "Marlene M.",
    "isfemale": true
  },
  {
    "id": 3569,
    "name": "Merope G.",
    "isfemale": true
  },
  {
    "id": 545,
    "name": "Minerva M.",
    "isfemale": true
  },
  {
    "id": 3573,
    "name": "Mundungus F.",
    "isfemale": false
  },
  {
    "id": 552,
    "name": "Neville L.",
    "isfemale": false
  },
  {
    "id": 59484,
    "name": "Nott",
    "isfemale": false
  },
  {
    "id": 560,
    "name": "Oliver W.",
    "isfemale": false
  },
  {
    "id": 748,
    "name": "Pansy P.",
    "isfemale": true
  },
  {
    "id": 25582,
    "name": "Perenelle F.",
    "isfemale": true
  },
  {
    "id": 31697,
    "name": "Piers P.",
    "isfemale": false
  },
  {
    "id": 3584,
    "name": "Q. Quirrell",
    "isfemale": false
  },
  {
    "id": 2038,
    "name": "Regulus B.",
    "isfemale": false
  },
  {
    "id": 3585,
    "name": "Rita S.",
    "isfemale": true
  },
  {
    "id": 2750,
    "name": "Rodolphus L.",
    "isfemale": false
  },
  {
    "id": 2449,
    "name": "Salazar S.",
    "isfemale": false
  },
  {
    "id": 50150,
    "name": "Sally-Anne P.",
    "isfemale": true
  },
  {
    "id": 57520,
    "name": "Scabior",
    "isfemale": false
  },
  {
    "id": 9,
    "name": "Severus S.",
    "isfemale": false
  },
  {
    "id": 4,
    "name": "Sirius B.",
    "isfemale": false
  },
  {
    "id": 5729,
    "name": "Stan S.",
    "isfemale": false
  },
  {
    "id": 17490,
    "name": "Su L.",
    "isfemale": true
  },
  {
    "id": 2784,
    "name": "Susan B.",
    "isfemale": true
  },
  {
    "id": 3630,
    "name": "Ted T.",
    "isfemale": false
  },
  {
    "id": 2195,
    "name": "Theodore N.",
    "isfemale": false
  },
  {
    "id": 3593,
    "name": "Tobias S.",
    "isfemale": false
  },
  {
    "id": 6922,
    "name": "Tracey D.",
    "isfemale": true
  },
  {
    "id": 24284,
    "name": "Verity",
    "isfemale": true
  },
  {
    "id": 855,
    "name": "Vincent C.",
    "isfemale": false
  },
  {
    "id": 16901,
    "name": "Winky",
    "isfemale": true
  },
  {
    "id": 3596,
    "name": "Zacharias S.",
    "isfemale": false
  },
  {
    "id": 88852,
    "name": "Cassiopeia B.",
    "isfemale": true
  },
  {
    "id": 88850,
    "name": "Arcturus B.",
    "isfemale": false
  },
  {
    "id": 3579,
    "name": "S. Vector",
    "isfemale": true
  }
]
